BKM Assignment
…
C - Average Spending per Transaction

cart_volume <- year_end_2018 %>% group_by(isyeri) %>% mutate(avg_spending = islem_tutari/islem_adedi*1000000)
cart_volume

## # A tibble: 26 x 4
## # Groups:   isyeri [26]
##    isyeri                             islem_adedi islem_tutari avg_spending
##    <chr>                                    <dbl>        <dbl>        <dbl>
##  1 ARABA KIRALAMA                          266038         200.         750.
##  2 ARA KIRALAMA-SATIS/SERVIS/YEDEK ~     3361371        2805.         834.
##  3 BENZIN VE YAKIT ISTASYONLARI          27007860        5490.         203.
##  4 BIREYSEL EMEKLILIK                     2254844         669.         297.
##  5 ESITLI GIDA                          28278290        4610.         163.
##  6 DOGRUDAN PAZARLAMA                      803029         750.         934.
##  7 EGITIM / KIRTASIYE / OFIS MALZEME~     6889839        1418.         206.
##  8 ELEKTRIK-ELEKTRONIK ESYA, BILGISA~     7980083        3918.         491.
##  9 GIYIM VE AKSESUAR                     28162255        5225.         186.
## 10 HAVAYOLLARI                            1757052        1212.         690.
## # ... with 16 more rows
…
