BKM-Analytics
…
df_raw <- tables_list[[4]]
df_raw <- df_raw %>% slice(-(1:2))
colnames(df_raw)

## [1] "X1" "X2" "X3" "X4" "X5"

colnames(df_raw) <- c("type", "txn_cc","txn_dc", "tl_cc","tl_dc")
df_raw %>% filter(type != "TOPLAM") %>% mutate_at(vars(txn_cc:tl_dc),funs(gsub("\\.","",.))) %>% mutate_at(vars(txn_cc:tl_dc),funs(gsub(",",".",.))) %>% tbl_df()

## # A tibble: 26 x 5
##    type                                   txn_cc   txn_dc   tl_cc   tl_dc 
##    <chr>                                  <chr>    <chr>    <chr>   <chr> 
##  1 ARABA KİRALAMA                         234458   29881    116.02  5.24  
##  2 ARAÇ KİRALAMA-SATIŞ/SERVİS/YEDEK PARÇA 2693110  433196   1601.78 76.65 
##  3 BENZİN VE YAKIT İSTASYONLARI           22457882 6460535  3861.49 427.61
##  4 BIREYSEL EMEKLILIK                     2568154  508      607.99  0.17  
##  5 ÇEŞİTLİ GIDA                           20568348 10214579 3142.49 354.55
##  6 DOĞRUDAN PAZARLAMA                     425443   34240    113.06  2.92  
##  7 EĞİTİM / KIRTASİYE / OFİS MALZEMELERİ  4772413  1855520  1198.04 108.68
##  8 ELEKTRİK-ELEKTRONİK EŞYA, BİLGİSAYAR   6633372  1140438  2536.99 202.96
##  9 GİYİM VE AKSESUAR                      26155139 7640918  3245.08 625.81
## 10 HAVAYOLLARI                            2083535  218903   798.56  128.85
## # ... with 16 more rows

card_df <- df_raw %>% filter(type != "TOPLAM") %>% mutate_at(vars(txn_cc:tl_dc),funs(gsub("\\.","",.))) %>% mutate_at(vars(txn_cc:tl_dc),funs(as.numeric(gsub(",",".",.)))) %>% tbl_df()
card_df 

## # A tibble: 26 x 5
##    type                                     txn_cc   txn_dc tl_cc  tl_dc
##    <chr>                                     <dbl>    <dbl> <dbl>  <dbl>
##  1 ARABA KİRALAMA                           234458    29881  116.   5.24
##  2 ARAÇ KİRALAMA-SATIŞ/SERVİS/YEDEK PARÇA  2693110   433196 1602.  76.6 
##  3 BENZİN VE YAKIT İSTASYONLARI           22457882  6460535 3861. 428.  
##  4 BIREYSEL EMEKLILIK                      2568154      508  608.   0.17
##  5 ÇEŞİTLİ GIDA                           20568348 10214579 3142. 355.  
##  6 DOĞRUDAN PAZARLAMA                       425443    34240  113.   2.92
##  7 EĞİTİM / KIRTASİYE / OFİS MALZEMELERİ   4772413  1855520 1198. 109.  
##  8 ELEKTRİK-ELEKTRONİK EŞYA, BİLGİSAYAR    6633372  1140438 2537. 203.  
##  9 GİYİM VE AKSESUAR                      26155139  7640918 3245. 626.  
## 10 HAVAYOLLARI                             2083535   218903  799. 129.  
## # ... with 16 more rows
…
KUYUMCULAR
360.8923

BIREYSEL EMEKLILIK
334.6457

KONAKLAMA
210.9926

Types where Credit Card transaction are higher than Debit Card

card_df %>% mutate(txn_cc_higher = txn_cc > txn_dc) %>% select(type,txn_cc,txn_dc,txn_cc_higher)

## # A tibble: 26 x 4
##    type                                     txn_cc   txn_dc txn_cc_higher
##    <chr>                                     <dbl>    <dbl> <lgl>        
##  1 ARABA KİRALAMA                           234458    29881 TRUE         
##  2 ARAÇ KİRALAMA-SATIŞ/SERVİS/YEDEK PARÇA  2693110   433196 TRUE         
##  3 BENZİN VE YAKIT İSTASYONLARI           22457882  6460535 TRUE         
##  4 BIREYSEL EMEKLILIK                      2568154      508 TRUE         
##  5 ÇEŞİTLİ GIDA                           20568348 10214579 TRUE         
##  6 DOĞRUDAN PAZARLAMA                       425443    34240 TRUE         
##  7 EĞİTİM / KIRTASİYE / OFİS MALZEMELERİ   4772413  1855520 TRUE         
##  8 ELEKTRİK-ELEKTRONİK EŞYA, BİLGİSAYAR    6633372  1140438 TRUE         
##  9 GİYİM VE AKSESUAR                      26155139  7640918 TRUE         
## 10 HAVAYOLLARI                             2083535   218903 TRUE         
## # ... with 16 more rows

Types where Credit Card cost are higher than Debit Card

card_df %>% mutate(tl_cc_higher = tl_cc > tl_dc) %>% select(type,tl_cc,tl_dc,tl_cc_higher)

## # A tibble: 26 x 4
##    type                                   tl_cc  tl_dc tl_cc_higher
##    <chr>                                  <dbl>  <dbl> <lgl>       
##  1 ARABA KİRALAMA                          116.   5.24 TRUE        
##  2 ARAÇ KİRALAMA-SATIŞ/SERVİS/YEDEK PARÇA 1602.  76.6  TRUE        
##  3 BENZİN VE YAKIT İSTASYONLARI           3861. 428.   TRUE        
##  4 BIREYSEL EMEKLILIK                      608.   0.17 TRUE        
##  5 ÇEŞİTLİ GIDA                           3142. 355.   TRUE        
##  6 DOĞRUDAN PAZARLAMA                      113.   2.92 TRUE        
##  7 EĞİTİM / KIRTASİYE / OFİS MALZEMELERİ  1198. 109.   TRUE        
##  8 ELEKTRİK-ELEKTRONİK EŞYA, BİLGİSAYAR   2537. 203.   TRUE        
##  9 GİYİM VE AKSESUAR                      3245. 626.   TRUE        
## 10 HAVAYOLLARI                             799. 129.   TRUE        
## # ... with 16 more rows
…
