BKM - Analysis
…
Processing raw data

raw_df <- raw_tables[[4]] %>% tbl_df

colnames(raw_df) <- c("type", "txn_cc", "txn_dc", "tl_cc", "tl_dc")

cards_df <- raw_df %>% slice(-(1:2)) %>% filter(type != "TOPLAM") %>%
  mutate_at(vars(txn_cc:tl_dc),funs(gsub("\\.","",.))) %>% 
  mutate_at(vars(txn_cc:tl_dc),funs(as.numeric(gsub(",",".",.)))) %>% 
  tbl_df()
  
cards_df

## # A tibble: 26 x 5
##    type                                     txn_cc   txn_dc tl_cc   tl_dc
##    <chr>                                     <dbl>    <dbl> <dbl>   <dbl>
##  1 ARABA KİRALAMA                           266038    50722  200.   16.5 
##  2 ARAÇ KİRALAMA-SATIŞ/SERVİS/YEDEK PARÇA  3361371   709323 2805.  148.  
##  3 BENZİN VE YAKIT İSTASYONLARI           27007860  9179688 5490.  736.  
##  4 BIREYSEL EMEKLILIK                      2254844      971  669.    0.44
##  5 ÇEŞİTLİ GIDA                           28278290 15597316 4610.  667.  
##  6 DOĞRUDAN PAZARLAMA                       803029    36107  750.    8.61
##  7 EĞİTİM / KIRTASİYE / OFİS MALZEMELERİ   6889839  3140888 1418.  215.  
##  8 ELEKTRİK-ELEKTRONİK EŞYA, BİLGİSAYAR    7980083  2061213 3918.  342.  
##  9 GİYİM VE AKSESUAR                      28162255 10266234 5225. 1289.  
## 10 HAVAYOLLARI                             1757052   374999 1212.  386.  
## # ... with 16 more rows
…
Debit card transactions

cards_df %>%
  arrange(desc(txn_dc))

## # A tibble: 26 x 5
##    type                                     txn_cc   txn_dc  tl_cc tl_dc
##    <chr>                                     <dbl>    <dbl>  <dbl> <dbl>
##  1 MARKET VE ALIŞVERİŞ MERKEZLERİ        104967591 53470517 11413. 2197.
##  2 YEMEK                                  40487702 34956203  2315. 1042.
##  3 DİĞER                                   4943785 15751353  1351.  593.
##  4 ÇEŞİTLİ GIDA                           28278290 15597316  4610.  667.
##  5 GİYİM VE AKSESUAR                      28162255 10266234  5225. 1289.
##  6 BENZİN VE YAKIT İSTASYONLARI           27007860  9179688  5490.  736.
##  7 SAĞLIK/SAĞLIK ÜRÜNLERİ/KOZMETİK        15354372  7070821  2502.  569.
##  8 HİZMET SEKTÖRLERİ                      23010866  5692358  4529.  486.
##  9 EĞİTİM / KIRTASİYE / OFİS MALZEMELERİ   6889839  3140888  1418.  215.
## 10 TELEKOMÜNİKASYON                       18453861  2750888  1773.  212.
## # ... with 16 more rows
…
